[gd_scene load_steps=6 format=2]

[ext_resource path="res://objects/atom.tscn" type="PackedScene" id=1]
[ext_resource path="res://textures/title.png" type="Texture" id=2]
[ext_resource path="res://scripts/splash.gd" type="Script" id=3]
[ext_resource path="res://textures/tip.png" type="Texture" id=4]
[ext_resource path="res://sounds/music2.mp3" type="AudioStream" id=5]

[node name="splash" type="Spatial"]
script = ExtResource( 3 )

[node name="atom" parent="." instance=ExtResource( 1 )]
transform = Transform( 2.09435, 0, 0, 0, 2.09435, 0, 0, 0, 2.09435, 24.4126, -40.7422, 10.8257 )

[node name="Camera" type="Camera" parent="."]
transform = Transform( 1, 0, 0, 0, -4.37114e-08, 1, 0, -1, -4.37114e-08, 0, 20, 0 )

[node name="Sprite3D" type="Sprite3D" parent="."]
transform = Transform( 10.647, 0, 0, 0, -4.65393e-07, 10.647, 0, -10.647, -4.65393e-07, -17.4657, -15.615, -13.5248 )
texture = ExtResource( 2 )

[node name="Sprite3D2" type="Sprite3D" parent="."]
transform = Transform( 10.647, 0, 0, 0, -4.65393e-07, 10.647, 0, -10.647, -4.65393e-07, -29.3551, -15.615, 18.4732 )
texture = ExtResource( 4 )
vframes = 4

[node name="Sprite3D3" type="Sprite3D" parent="."]
transform = Transform( 10.647, 0, 0, 0, -4.65393e-07, 10.647, 0, -10.647, -4.65393e-07, -29.3551, -15.615, 22.007 )
texture = ExtResource( 4 )
vframes = 4
frame = 1

[node name="Sprite3D4" type="Sprite3D" parent="."]
transform = Transform( 10.647, 0, 0, 0, -4.65393e-07, 10.647, 0, -10.647, -4.65393e-07, 32.1024, -15.615, 22.007 )
texture = ExtResource( 4 )
vframes = 4
frame = 3

[node name="music" type="AudioStreamPlayer" parent="."]
stream = ExtResource( 5 )
volume_db = -10.0
autoplay = true
