# Blender v2.92.0 OBJ File: 'geinger.blend'
# www.blender.org
o Plane_Plane.001
v -0.016161 0.008254 0.015831
v 0.016161 0.008254 0.015831
v 0.000000 0.008254 -0.711113
vt 0.000000 0.000000
vt 1.000000 0.000000
vt 0.000000 1.000000
vn 0.0000 1.0000 0.0000
s off
f 1/1/1 2/2/1 3/3/1
